{
	"title": "HEALTH OF NATIONS OUTCOME SCALE- LEARNING DISABILITIES",
	"questions": [
		{
			"id": 1,
			"label": "Behavioural Problems Directed at Others",
			"value": "",
			"type": "scale5"
		},
		{
			"id": 2,
			"label": "Behavioural Problems Directed Towards Self (Self- Injury)",
			"value": "",
			"type": "scale5"
		},
		{
			"id": 3,
			"label": "Other Mental and Behaviour Problems",
			"value": "",
			"type": "scale5"
		},
		{
			"id": 4,
			"label": "Attention and Concentration",
			"value": "",
			"type": "scale5"
		},
		{
			"id": 5,
			"label": "Memory and Orientation",
			"value": "",
			"type": "scale5"
		},
		{
			"id": 6,
			"label": "Communications (Problems with Understanding)",
			"value": "",
			"type": "scale5"
		},
		{
			"id": 7,
			"label": "Communications (Problems with Expression)",
			"value": "",
			"type": "scale5"
		},
		{
			"id": 8,
			"label": "Problems Associated with Hallucinations and Delusions",
			"value": "",
			"type": "scale5"
		},
		{
			"id": 9,
			"label": "Problems Associated with Mood Changes",
			"value": "",
			"type": "scale5"
		},
		{
			"id": 10,
			"label": "Problems with Sleeping",
			"value": "",
			"type": "scale5"
		}
		,
		{
			"id": 11,
			"label": "Problems with Eating and Drinking",
			"value": "",
			"type": "scale5"
		},
		{
			"id": 12,
			"label": "Physical Problems",
			"value": "",
			"type": "scale5"

		}
		,
		{
			"id": 13,
			"label": "Seizures",
			"value": "",
			"type": "scale5"

		},
		{
			"id": 14,
			"label": "Activites of Daily Living at Home",
			"value": "",
			"type": "scale5"

		},
		{
			"id": 15,
			"label": "Activities of Daily Living Outside the Home",
			"value": "",
			"type": "scale5"

		},
		{
			"id": 16,
			"label": "Level of Self-Care",
			"value": "",
			"type": "scale5"

		},
		{
			"id": 17,
			"label": "Problems with Relationships",
			"value": "",
			"type": "scale5"

		},
		{
			"id": 18,
			"label": "Occupation and Activities",
			"value": "",
			"type": "scale5"

		}
	]
}